[gd_scene load_steps=6 format=2]

[ext_resource path="res://singletons/game_manager.gd" type="Script" id=1]
[ext_resource path="res://singletons/assets/music.ogg" type="AudioStream" id=2]
[ext_resource path="res://menu/menu.tscn" type="PackedScene" id=3]

[sub_resource type="Animation" id=1]

resource_name = "Fade In"
length = 0.3
loop = false
step = 0.1
tracks/0/type = "value"
tracks/0/path = NodePath("CanvasLayer/Fade:color:a")
tracks/0/interp = 1
tracks/0/loop_wrap = true
tracks/0/imported = false
tracks/0/enabled = true
tracks/0/keys = {
"times": PoolRealArray( 0, 0.3 ),
"transitions": PoolRealArray( 1, 1 ),
"update": 0,
"values": [ 0.0, 1.0 ]
}

[sub_resource type="Animation" id=2]

resource_name = "Fade Out"
length = 0.3
loop = false
step = 0.1
tracks/0/type = "value"
tracks/0/path = NodePath("CanvasLayer/Fade:color:a")
tracks/0/interp = 1
tracks/0/loop_wrap = true
tracks/0/imported = false
tracks/0/enabled = true
tracks/0/keys = {
"times": PoolRealArray( 0, 0.3 ),
"transitions": PoolRealArray( 1, 1 ),
"update": 0,
"values": [ 1.0, 0.0 ]
}

[node name="GameManager" type="Node" index="0"]

pause_mode = 2
script = ExtResource( 1 )
_sections_unfolded = [ "Pause" ]

[node name="Audio" type="AudioStreamPlayer" parent="." index="0"]

stream = ExtResource( 2 )
volume_db = 0.0
pitch_scale = 1.0
autoplay = false
mix_target = 0
bus = "Music"

[node name="Animation" type="AnimationPlayer" parent="." index="1"]

root_node = NodePath("..")
autoplay = ""
playback_process_mode = 1
playback_default_blend_time = 0.0
playback_speed = 1.0
"anims/Fade In" = SubResource( 1 )
"anims/Fade Out" = SubResource( 2 )
blend_times = [  ]

[node name="CanvasLayer" type="CanvasLayer" parent="." index="2"]

layer = 1
offset = Vector2( 0, 0 )
rotation = 0.0
scale = Vector2( 1, 1 )
transform = Transform2D( 1, 0, 0, 1, 0, 0 )

[node name="Menu" parent="CanvasLayer" index="0" instance=ExtResource( 3 )]

[node name="Fade" type="ColorRect" parent="CanvasLayer" index="1"]

anchor_left = 0.0
anchor_top = 0.0
anchor_right = 1.0
anchor_bottom = 1.0
rect_pivot_offset = Vector2( 0, 0 )
rect_clip_content = false
mouse_filter = 2
mouse_default_cursor_shape = 0
size_flags_horizontal = 1
size_flags_vertical = 1
color = Color( 0.12549, 0.12549, 0.12549, 0 )
_sections_unfolded = [ "Mouse" ]

[connection signal="animation_finished" from="Animation" to="." method="_on_animation_finished"]


